{
  "drones": {
    "drone01": {
      "id": "drone01",
      "name": "Alpha",
      "operation": "MAPPER",
      "status": "IN MISSION",
      "batteryPercentage": 75,
      "parkingFloorId": "parkingFloorId1"
    },
    "drone02": {
      "id": "drone02",
      "name": "Bravo",
      "operation": "GUIDER",
      "status": "IDLE",
      "batteryPercentage": 90,
      "parkingFloorId": "parkingFloorId1"
    },
    "drone03": {
      "id": "drone03",
      "name": "Charlie",
      "operation": "MAPPER",
      "status": "ERROR",
      "batteryPercentage": 50,
      "parkingFloorId": "parkingFloorId2"
    },
    "drone04": {
      "id": "drone04",
      "name": "Delta",
      "operation": "GUIDER",
      "status": "IN MISSION",
      "batteryPercentage": 65,
      "parkingFloorId": "parkingFloorId2"
    },
    "drone05": {
      "id": "drone05",
      "name": "Echo",
      "operation": "MAPPER",
      "status": "IDLE",
      "batteryPercentage": 80,
      "parkingFloorId": "parkingFloorId2"
    }
  },
  "parkingFloors": {
    "parkingFloorId1": {
      "a9a81509-271a-4049-8053-4962c5784c20": {
        "id": "a9a81509-271a-4049-8053-4962c5784c20",
        "number": 1,
        "isOccupied": true
      },
      "797f2093-dd38-4fc9-830b-69f939898981": {
        "id": "797f2093-dd38-4fc9-830b-69f939898981",
        "number": 2,
        "isOccupied": false
      },
      "38373b3e-f779-4e56-b313-e7aafc4f4012": {
        "id": "38373b3e-f779-4e56-b313-e7aafc4f4012",
        "number": 3,
        "isOccupied": false
      },
      "08a2ee44-8f5f-464b-b200-254e4881d188": {
        "id": "08a2ee44-8f5f-464b-b200-254e4881d188",
        "number": 4,
        "isOccupied": false
      },
      "27f6850e-086e-4f44-87c9-ae6fdf72e347": {
        "id": "27f6850e-086e-4f44-87c9-ae6fdf72e347",
        "number": 5,
        "isOccupied": false
      },
      "d883bed6-e9c7-40dc-8562-932451a67bdc": {
        "id": "d883bed6-e9c7-40dc-8562-932451a67bdc",
        "number": 6,
        "isOccupied": false
      },
      "224469d2-b448-4e3d-8535-6dd2c70c3d79": {
        "id": "224469d2-b448-4e3d-8535-6dd2c70c3d79",
        "number": 7,
        "isOccupied": false
      },
      "a7b77b2d-132f-4f4b-b493-ae0c3019e9bf": {
        "id": "a7b77b2d-132f-4f4b-b493-ae0c3019e9bf",
        "number": 8,
        "isOccupied": false
      },
      "edca59e7-4d7f-4b5d-aa39-36283c70c83f": {
        "id": "edca59e7-4d7f-4b5d-aa39-36283c70c83f",
        "number": 9,
        "isOccupied": true
      },
      "d9bc0fbe-1e6c-4164-9461-20968cdbeeef": {
        "id": "d9bc0fbe-1e6c-4164-9461-20968cdbeeef",
        "number": 10,
        "isOccupied": true
      },
      "f69d8bc8-24ad-49c0-a0a1-cb3a6ca1e280": {
        "id": "f69d8bc8-24ad-49c0-a0a1-cb3a6ca1e280",
        "number": 11,
        "isOccupied": true
      },
      "062de88e-8da2-4ba6-94cd-1ee1fe531f5c": {
        "id": "062de88e-8da2-4ba6-94cd-1ee1fe531f5c",
        "number": 12,
        "isOccupied": true
      },
      "d63db926-3978-4106-8d7f-2245dfa1e3c2": {
        "id": "d63db926-3978-4106-8d7f-2245dfa1e3c2",
        "number": 13,
        "isOccupied": false
      },
      "0c68067b-046c-423f-b155-39056cf25351": {
        "id": "0c68067b-046c-423f-b155-39056cf25351",
        "number": 14,
        "isOccupied": false
      },
      "8103bab5-99d9-4c83-88b6-a105659632d0": {
        "id": "8103bab5-99d9-4c83-88b6-a105659632d0",
        "number": 15,
        "isOccupied": false
      }
    },
    "parkingFloorId2": {
      "801e83f1-24dd-48a9-ad9b-71bdcac2efa9": {
        "id": "801e83f1-24dd-48a9-ad9b-71bdcac2efa9",
        "number": 16,
        "isOccupied": false
      },
      "8f3df8d4-94b1-4ccb-9955-f54688d068c2": {
        "id": "8f3df8d4-94b1-4ccb-9955-f54688d068c2",
        "number": 17,
        "isOccupied": false
      },
      "5e5da9bb-c931-4523-a753-bfee50813d1c": {
        "id": "5e5da9bb-c931-4523-a753-bfee50813d1c",
        "number": 18,
        "isOccupied": false
      },
      "b60fcceb-d0a4-40e2-a1aa-78b5a46df87d": {
        "id": "b60fcceb-d0a4-40e2-a1aa-78b5a46df87d",
        "number": 19,
        "isOccupied": false
      },
      "8f8b363d-951d-46f4-84f5-7148bcecdcbe": {
        "id": "8f8b363d-951d-46f4-84f5-7148bcecdcbe",
        "number": 20,
        "isOccupied": true
      },
      "289abe2e-fd27-4645-bc16-e723e3f0897f": {
        "id": "289abe2e-fd27-4645-bc16-e723e3f0897f",
        "number": 21,
        "isOccupied": false
      },
      "d8987e29-ad4c-4283-947d-bc9bc9c5fbad": {
        "id": "d8987e29-ad4c-4283-947d-bc9bc9c5fbad",
        "number": 22,
        "isOccupied": false
      },
      "58ecd77b-fde6-47ea-84b5-1e8b7ca4a4ce": {
        "id": "58ecd77b-fde6-47ea-84b5-1e8b7ca4a4ce",
        "number": 23,
        "isOccupied": false
      },
      "36e65baa-0113-437d-8b09-3e9d2500c721": {
        "id": "36e65baa-0113-437d-8b09-3e9d2500c721",
        "number": 24,
        "isOccupied": false
      },
      "c37b656d-eb7f-4ed8-81f0-9c90f794aad5": {
        "id": "c37b656d-eb7f-4ed8-81f0-9c90f794aad5",
        "number": 25,
        "isOccupied": false
      },
      "5165cfa3-88da-498c-9d7a-31b222bbf73b": {
        "id": "5165cfa3-88da-498c-9d7a-31b222bbf73b",
        "number": 26,
        "isOccupied": false
      },
      "5628f81f-a2fb-44dd-b5b7-4684a7db498e": {
        "id": "5628f81f-a2fb-44dd-b5b7-4684a7db498e",
        "number": 27,
        "isOccupied": false
      },
      "794fceb5-ef85-4cb4-a78a-95d633f15045": {
        "id": "794fceb5-ef85-4cb4-a78a-95d633f15045",
        "number": 28,
        "isOccupied": false
      },
      "f856a6cb-f3da-41fa-9284-e02eda8f8dbe": {
        "id": "f856a6cb-f3da-41fa-9284-e02eda8f8dbe",
        "number": 29,
        "isOccupied": false
      },
      "7deec244-152d-4c0c-aa06-0a68774a431f": {
        "id": "7deec244-152d-4c0c-aa06-0a68774a431f",
        "number": 30,
        "isOccupied": true
      }
    }
  }
}
